<?xml version="1.0" encoding="utf-8"?>
<!-- Generator: Adobe Illustrator 25.4.1, SVG Export Plug-In . SVG Version: 6.00 Build 0)  -->
<svg version="1.1" id="Capa_1" xmlns="http://www.w3.org/2000/svg" xmlns:xlink="http://www.w3.org/1999/xlink" x="0px" y="0px"
	 viewBox="0 0 512 512" style="enable-background:new 0 0 512 512;" xml:space="preserve">
<style type="text/css">
	.st0{fill:#5D4135;stroke:#5D4135;stroke-width:10;stroke-miterlimit:10;}
</style>
<g>
	<path class="st0" d="M485.96,181.07c-6.26-7.85-15.65-12.36-25.76-12.36h-91.28l-49.5-113.34c-3.07-7.03-11.26-10.24-18.28-7.17
		c-7.03,3.07-10.24,11.26-7.17,18.28l44.65,102.23H173.4l44.65-102.24c3.07-7.03-0.14-15.21-7.17-18.28
		c-7.03-3.07-15.21,0.14-18.28,7.17L143.1,168.7H51.82c-10.12,0-19.51,4.51-25.76,12.36c-6.15,7.71-8.42,17.62-6.22,27.2
		l48.75,231.45c3.41,14.87,16.55,25.25,31.98,25.25h310.89c15.43,0,28.58-10.39,31.98-25.25l48.75-231.45
		C494.37,198.69,492.1,188.78,485.96,181.07L485.96,181.07z M411.44,437.19H100.56c-2.36,0-4.43-1.55-4.92-3.68L46.9,202.07
		c-0.38-1.67,0.26-2.93,0.87-3.68c0.56-0.7,1.83-1.89,4.05-1.89h79.15l-3.64,8.33c-3.07,7.03,0.14,15.21,7.17,18.28
		c1.81,0.79,3.69,1.17,5.55,1.17c5.35,0,10.45-3.11,12.73-8.33l8.49-19.44h189.46l8.49,19.44c2.28,5.22,7.38,8.33,12.73,8.33
		c1.85,0,3.74-0.37,5.55-1.17c7.03-3.07,10.24-11.26,7.17-18.28l-3.64-8.33h79.15c2.2,0,3.48,1.18,4.05,1.89
		c0.6,0.76,1.25,2.02,0.87,3.68l-48.75,231.45C415.87,435.64,413.8,437.19,411.44,437.19L411.44,437.19z"/>
	<path class="st0" d="M172.68,265.92c-7.67,0-13.89,6.22-13.89,13.89v101.83c0,7.67,6.22,13.89,13.89,13.89
		c7.67,0,13.89-6.22,13.89-13.89V279.81C186.57,272.14,180.35,265.92,172.68,265.92z"/>
	<path class="st0" d="M256,265.92c-7.67,0-13.89,6.22-13.89,13.89v101.83c0,7.67,6.22,13.89,13.89,13.89
		c7.67,0,13.89-6.22,13.89-13.89V279.81C269.89,272.14,263.67,265.92,256,265.92z"/>
	<path class="st0" d="M339.32,265.92c-7.67,0-13.89,6.22-13.89,13.89v101.83c0,7.67,6.22,13.89,13.89,13.89s13.89-6.22,13.89-13.89
		V279.81C353.2,272.14,346.98,265.92,339.32,265.92z"/>
</g>
</svg>
