<?xml version="1.0" encoding="utf-8"?>
<!-- Generator: Adobe Illustrator 25.4.1, SVG Export Plug-In . SVG Version: 6.00 Build 0)  -->
<svg version="1.1" id="Layer_1" xmlns="http://www.w3.org/2000/svg" xmlns:xlink="http://www.w3.org/1999/xlink" x="0px" y="0px"
	 viewBox="0 0 512 512" style="enable-background:new 0 0 512 512;" xml:space="preserve">
<style type="text/css">
	.st0{fill:#5D4135;stroke:#5D4135;stroke-width:10;stroke-miterlimit:10;}
</style>
<g>
	<g>
		<g>
			<path class="st0" d="M256,35.89c-63.47,0-115.11,51.64-115.11,115.11S192.53,266.11,256,266.11S371.11,214.47,371.11,151
				S319.47,35.89,256,35.89z M256,240.53c-49.37,0-89.53-40.16-89.53-89.53S206.63,61.47,256,61.47s89.53,40.16,89.53,89.53
				S305.37,240.53,256,240.53z"/>
		</g>
	</g>
	<g>
		<g>
			<path class="st0" d="M256,289.95c-174.09,0-201.55,120.78-201.55,167.51c0,7.42,6.02,13.44,13.44,13.44h376.24
				c7.42,0,13.44-6.02,13.44-13.44C457.55,410.73,430.09,289.95,256,289.95z M81.91,444.02C88.65,367.8,135.07,316.82,256,316.82
				s167.36,50.98,174.09,127.19H81.91z"/>
		</g>
	</g>
</g>
</svg>
