<svg xmlns="http://www.w3.org/2000/svg" width="20" height="20" viewBox="0 0 20 20">
  <path id="Path_1087" data-name="Path 1087" d="M18.9.112H1.1A1.1,1.1,0,0,0,0,1.216V19.009a1.1,1.1,0,0,0,1.1,1.1h9.579V12.367H8.077V9.349h2.607V7.123a3.637,3.637,0,0,1,3.882-3.99,21.384,21.384,0,0,1,2.329.119v2.7H15.3c-1.253,0-1.5.6-1.5,1.469V9.35H16.79L16.4,12.368H13.8v7.744h5.1a1.1,1.1,0,0,0,1.1-1.1V1.216A1.1,1.1,0,0,0,18.9.112Z" transform="translate(0 -0.112)" fill="#5d4135" fill-rule="evenodd"/>
</svg>
