<svg width="1363" height="647" viewBox="0 0 1363 647" fill="none" xmlns="http://www.w3.org/2000/svg">
<circle opacity="0.5" cx="1289.29" cy="56.3918" r="21.7223" fill="#6A72FB"/>
<circle cx="14.6108" cy="136.493" r="14.6108" fill="#6A72FB"/>
<circle cx="780.076" cy="543.343" r="13" fill="#6A72FB"/>
<circle opacity="0.7" cx="257.383" cy="89.1206" r="10.1108" fill="#6A72FB"/>
<circle opacity="0.3" cx="62.2806" cy="472.894" r="7.22396" fill="#6A72FB"/>
<circle opacity="0.3" cx="357.235" cy="552.916" r="15.8203" fill="#6A72FB"/>
<circle opacity="0.8" cx="558.143" cy="24.5585" r="10.1108" fill="#6A72FB"/>
<circle opacity="0.8" cx="961.043" cy="52.1894" r="10.1108" fill="#6A72FB"/>
<circle opacity="0.3" cx="1354.15" cy="310.026" r="8.1354" fill="#6A72FB"/>
<circle cx="629.836" cy="635.218" r="10.9093" fill="#6A72FB"/>
<circle opacity="0.8" cx="1323.01" cy="616.128" r="11.9968" fill="#6A72FB"/>
<circle opacity="0.3" cx="101.92" cy="7.22396" r="7.22396" fill="#6A72FB"/>
</svg>
