<?xml version="1.0" encoding="utf-8"?>
<!-- Generator: Adobe Illustrator 25.4.1, SVG Export Plug-In . SVG Version: 6.00 Build 0)  -->
<svg version="1.1" id="Layer_1" xmlns="http://www.w3.org/2000/svg" xmlns:xlink="http://www.w3.org/1999/xlink" x="0px" y="0px"
	 viewBox="0 0 48 27" style="enable-background:new 0 0 48 27;" xml:space="preserve">
<style type="text/css">
	.st0{fill-rule:evenodd;clip-rule:evenodd;fill:#A38A72;}
</style>
<desc>Created with Sketch.</desc>
<g id="Page-1">
	<g id="Artboard" transform="translate(-158.000000, -53.000000)">
		<g id="up-arrow-_x28_1_x29_" transform="translate(158.000000, 53.000000)">
			<polygon id="Path" class="st0" points="47.2,24.1 44.4,27 23.8,6.4 3.2,27 0.4,24.1 23.8,0.7 			"/>
		</g>
	</g>
</g>
</svg>
